/* XPM */
static char *_6032_1f5481583a8f716276c8a4f949311f2bcb3894375467c9113afd5fded4deb115[] = {
/* columns rows colors chars-per-pixel */
"64 64 20 1 ",
"  c black",
". c #202020",
"X c #2C2C2C",
"o c gray22",
"O c #000040",
"+ c #00004C",
"@ c #000058",
"# c #000064",
"$ c #000070",
"% c #00007C",
"& c gray33",
"* c #000088",
"= c #000098",
"- c #0000A4",
"; c #0000B0",
": c #0000BC",
"> c #0000C8",
", c #0000D4",
"< c #0000E0",
"1 c #4040FC",
/* pixels */
"o$%%%%%%%%%%%%%%%%%%%$oo****************************oo$%%%%%%%$X",
".---------------------..::::::::::::::::::::::::::::..;;;;;;;;;.",
" ---*-%--=%==%==%-%$$@ .:-:;%-:=$$=*--*$*-:-*=-::-=$ .;:-=-;;=% ",
" -=%*===%%-=-#==%$%%$# .::-===$=@$@@%--#$$#$$@$**$#$ .;;--%=--@ ",
" -*-$>>=%%%=**%#@%$@@# .                             .;-;::;-%% ",
" -*%->>#%%%-===*$$%@@O .-------------------...........;:-;-%%#@ ",
" -==;;---=---==$$#@#$# .-:::;-==:==;==;::-- .----==#..;==-%**## ",
" --=-;;-=%#--=**%##@OO .-;:<>;-:-===;;---=- .-==*=%# .;==-$***# ",
" -=%=--*=%=$$***$%%#@O .-;>:>=;--:==-%-%=-% .-===%%# .;:-=--**O ",
" -***-%%%--$@##$#%%%@O .-;;;===;----=*#%%%# .--=%%@@ .:%%=--=@O ",
" =%*-**$=--$$#@###%%@O .-:;;;==;::--##*%%#@ .--=%-%@ .:%:-%==@O ",
" =*=%%-*#%@%#@#%O@OO#O .-:--;;;;:;;-##$-##O .-%*=%@@ .::%%##%%O ",
" =%=%#**%#%#%#O$$OOO#O .-;--=:==-;;-==%%@@# .-***$$# .:%$#%#%%O ",
" ==%%%$#@@#%#$#OO$O#@O .-;<>**==*%%%*=*%##O .--**$$# .:%%$@@@@O ",
" =%=##$#%#OOOOOOOOOOOO .-:>>***--%**%*$%#@O .-%=-@@@ .          ",
"                       .-:--=**---**=##%#@O .---=-@# ...........",
"-:;-;-----;---- ;;;--== -;=-*=----%==%%@@OO .=-=-=$# .---- :::::",
":;-=-:;-*--%-=% ;;=::%: ----:-=---*#$%OO#@O .==%$%$@ .-;*% ::-;:",
":;==*--*%==%%== ;::;=%% -;=-:-*%**#%%$OO#OO .==@@@#O .-;;% :-;;;",
";-=;;==%%%=%%%% ;:;;==# -;---*-%%#$$@@@##@O .=%@#@@O .-*%@ :::;;",
"-*=;:;%%==%=@%% ;:=%==# ---====%#@##@##@OOO .=%#@@OO .-@#@ ::;;;",
"--*=;,%=%%##$%% ;=:%%%#                     .             .::--=",
";*%*=-=%%=#$%@@ ;==#%%@ .........................;;;;;;;;..:--==",
";-*=%=%==%$%#%@ ;:=*#@# .;;;;;;;;;;;;;;;;;;;;=-..;>;>---= .:;===",
";;=*;====%%$@@@ -:%**#@ .;:;-:::;:-;-:;%-:::%-@ .;>;>>-=* .::===",
";-*%*;;#%=**$@# -%#$$@# .;:-;><<:,<-:--::----%@ .;>>>>-*% .:;:--",
"-=%*-;;-=%**$@# =%@@@@# .;;-:,,<:<,,;%-%%-%%-@@ .;;->-*-# .:::--",
";=;==-;-#%$$$@@         .;::;;>>--,,--%%%$-%%@@ .;>----*# .:::;;",
"-**--=--#$@#@OO .........;;:;;;---:---%**%%@@@# .;>>--*%$ .:--:;",
"-=*---=%$#@##@@ .;;;;--..;--:;**-:;%--%***$$$@@ .;>>==--@ .:--;;",
"=*=*--%##@@@#O# .;;*-=* .;:;:;**---%---$**@$$$O .;;>===-@ .::==%",
"=**%**%##$%%#OO .;--=*= .;::-;;;=-%%%--$@#@#$$O .;;-*;--# .:**==",
"=*-=$%%$#$%%#@O .;-=*$# .;:-%-;;--%$%#$$$@OO@OO .;;>*;;=# .:**%%",
"=-=**%##@++$#@O .;;*;*@ .;--:%--=%$%%##$$#OO##O .;->-*==@ .::%%%",
"%==*%%%%@++@@#O .;;;$$# .;%:%--%%$#%%%##@@###+O .;>--=@$# .:--==",
"%**%$%%%@@#@@@@ .;;;-@@ .;-:%--$##@%%%#@@@@+++O .;>-=%=$@ .:--=*",
"%*#$%#%%@#@O@#@ .;==@*# .;-%--%@@@@####@OOOOOOO .;>-%==%# .:=--%",
"%=%#%#$@#OO@OOO .;==;@# .                       .-;-%#%%# .:=**%",
"%*=*$%$@@@O#O@O .;;*;*@ .........................-;;-%@#O .::**%",
"%=*%#$%$OOOOOOO .;;**@# .----------------------..-;-:-%#O .:==%*",
"                .;;%%@@ .-::::::;-------=*%:=-% .->--:*@O .     ",
".....@@$$***%$#..-;%%%@ .;:>>:--;;>:==--=%*%*=% .----**@O .*=** ",
".=-;:::::::::::..--*%%# .;:>>>;;;;::%%%%---==%# .->-%$@@O .==%% ",
".-:::::;-;:---: .--=@## .;::::,,;;;%%%%%%=%%$=# .-;*$#@$O .=%$$ ",
".-:;;,,;:::=-:: .-=*@@@ .;::;:,,,%-=%%$$$*%%%%# .--$#$@@O .=$%@ ",
".:::;,,:==-::=; .       .-;:;::,,:--=%$$##@%%%# .*%%@@@#O .*%$@ ",
".:-;-;;;===:-** .........--;>==:-:----%%##%#@++ .         .*$@# ",
".::;=*;;-==-::- .::;--=..-->>===;---%%=*$##@@OO ............... ",
".::=-:;*-;;;%-- .:%:*=* .-:::;==:::-%%%%###@@OO .;;;;:::::::::: ",
".::::-*:*;%%-*- .:-;;=% .-;--;;;::::-%*$@###$@+ .;;--;;;;-*:--% ",
".:-:=--:;=%+%-- .::%-%$ .-:---=-::::---@@@@#$$# .;-;,,;;;=---=% ",
".:;==:<:-*-%%-- .:;--%- .-::--:**:::---$@@#@+++ .;::,>>;;**-=%# ",
".:-:-<1<==-=*%* .:;-%-$ .--:==%%%*---%%%##@@@OO .;=:=>>;;--%%%@ ",
".:;:;:<:-%--++# .:-;;%# .--:-**%%%*%*@@==$$@+OO .;:;===--%%%%@# ",
".:-:;;;***%$++# .::;=*# .-=::=:%%*%%*%@==*$$#@# .;;-===-%$#%@@# ",
".-:;;-%%=-==%## .:;-**% .-:=-:-*%$$**@@%==%$@@O .;;=-==-%$#$%@@ ",
".:-:;**;%--=$%@ .:-:%%% .-:---=*--$$@$@@%%%#@@O .;;:;*;;=%#==@O ",
".:-:-=*%#*--=$# .::-### .---==%*---$#$$@+++#OOO .::;*-;;;=%==%O ",
".;-***-#+#*==$$ .:;-%$@ .-;-==:-%--@@$$#@OO@OOO .:;-*--;;=%%%%O ",
".;-$#*#-%%=@#@@ .;-###@ .-;:%::-@###@@+++OO+@OO .:;-:--%*$$%%@O ",
".--**#*@#@#$#$# .;-*$## .--;:-%=@###@@OO$$#O+O@ .:::=-%%$%%$#O# ",
".-=%%%%%$$$$%%%..-*%%%%..--=-=%%%%%%$#@@%%%%@@$..:--%=-%%%%%$$% ",
"o***%%%%%%%%%%%oo**%%%%oo->*****%%%%%%%%%%%%%%%oo:**%%%%%%%%%%%.",
"&&&&&&&&&&&&&&&&&&&&&&&&&&&&&&&&&&&&&&&&&&&&&&&&&&&&&&&&&&&&&&&o"
};
